[
  {
    "line": 2,
    "elements": [
      {
        "comments": [
          {
            "line": 5,
            "value": "#[UserInformation]- UserName,Password"
          },
          {
            "line": 6,
            "value": "#[ItemInformation]-StudentName,ItemId"
          },
          {
            "line": 7,
            "value": "#[OrderSummary]-Bonus Points Used ,Bonus Points Earned ,Student Online Orders (Paid) ,Student Flyer Orders,Your Teacher Order"
          },
          {
            "line": 8,
            "value": "#[OrderInformation]-ItemId , Quantity and other attributes related to item."
          },
          {
            "line": 9,
            "value": "#[Free_Shipping_msg]- \u0027shipping fee is $3.50\u0027"
          },
          {
            "line": 10,
            "value": "#[Shipping_Charge_Msg]- \u0027Shipping charge as $3.50\u0027"
          },
          {
            "line": 11,
            "value": "#[Due_date_message] - \u0027Due Day message\u0027"
          },
          {
            "line": 12,
            "value": "#[Error_Msg] - \u0027Error in Cart\u0027"
          },
          {
            "line": 13,
            "value": "#[Due_date_message] - \u0027Your Next Due Date is Date\u0027"
          },
          {
            "line": 14,
            "value": "#[OS/SD/PM on submitorder] - order summary, shipping detail , payment method on submit-order-page"
          },
          {
            "line": 15,
            "value": "#[Paypal_Account_Detail] - username,id,password for new paypal account creation"
          },
          {
            "line": 16,
            "value": "#[CreditCardInformation] - nameOfCard, cardNumber, exp-date, cvv, firstName, lastName, address"
          },
          {
            "line": 17,
            "value": "#[OrderInformationMoreThan1000$] - ItemId , Quantity ,Payment Information of item more than 1000$"
          },
          {
            "line": 18,
            "value": "# [Email-idErrorMessage] - error message for no email id"
          },
          {
            "line": 19,
            "value": "#[PaymentInformation] - details for making payment"
          },
          {
            "line": 20,
            "value": "#[PaymentMethodUpdatedMessage] - message for updatde payment method in wallet of paypal"
          },
          {
            "line": 21,
            "value": "#[ShippingInformation] - shipping address details"
          },
          {
            "line": 22,
            "value": "#[DetailsOfCheck] - check details that need to be verified"
          },
          {
            "line": 23,
            "value": "#[DetailsOfPurchaseOrder] - details we need to verify for purchase order"
          },
          {
            "line": 24,
            "value": "#[PaypalDetailInformation] details that need to be verified for paypal"
          },
          {
            "line": 25,
            "value": "#[Welcome Information] - message for becoming red apple user"
          },
          {
            "line": 26,
            "value": "#[Free_shipping_Msg] - message for free shipping"
          },
          {
            "line": 27,
            "value": "#[Express_Shipping_Msg] - message for express shipping"
          },
          {
            "line": 28,
            "value": "#[SchoolInformation] - information of new school to be edited with current"
          },
          {
            "line": 29,
            "value": "#[Insufficient_BP_Balance] - message for insufficient bonus point"
          },
          {
            "line": 30,
            "value": "#[InvalidCreditCardDetails] - details of invalid credit card"
          },
          {
            "line": 31,
            "value": "#[OrderInformationMoreThan1000$] - ItemId , Quantity that makes order total 1000$"
          },
          {
            "line": 32,
            "value": "#[NewMasterCreditCardDetails] - credit card details for master card"
          }
        ],
        "line": 34,
        "name": "",
        "description": "",
        "type": "background",
        "keyword": "Background",
        "steps": [
          {
            "result": {
              "duration": 6573730531,
              "status": "passed"
            },
            "line": 35,
            "name": "Parent opens scholastic reading clubs e-commerce site",
            "match": {
              "location": "LoginSteps.Parent_opens_scholastic_reading_clubs_ecommerce_site()"
            },
            "keyword": "Given "
          }
        ]
      },
      {
        "before": [
          {
            "result": {
              "duration": 27741180258,
              "status": "passed"
            },
            "match": {
              "location": "Hooks.beforeHook(Scenario)"
            }
          }
        ],
        "line": 48,
        "name": "Clicking on item from search result page navigates to PDP page:[InSprint13.1:PCOD:Parent_SearchResultPage_ItemClick]",
        "description": "",
        "id": "auto-toss-in;clicking-on-item-from-search-result-page-navigates-to-pdp-page:[\u003cusingdata\u003e];;2",
        "after": [
          {
            "result": {
              "duration": 530578046,
              "status": "passed"
            },
            "match": {
              "location": "Hooks.afterHook(Scenario)"
            }
          }
        ],
        "type": "scenario",
        "keyword": "Scenario Outline",
        "steps": [
          {
            "result": {
              "duration": 55592727366,
              "status": "passed"
            },
            "line": 41,
            "name": "Parent login in with valid [username] and [password]",
            "match": {
              "location": "PCOD_LoginSteps.parent_login_in_with_valid_username_and_password()"
            },
            "keyword": "Given "
          },
          {
            "result": {
              "duration": 12037776736,
              "status": "passed"
            },
            "line": 42,
            "name": "parent searches with valid partial matching title",
            "match": {
              "location": "PCOD_HomePageSteps.parent_searches_with_valid_partial_matching_title()"
            },
            "keyword": "When "
          },
          {
            "result": {
              "duration": 7889627551,
              "status": "passed"
            },
            "line": 43,
            "name": "clicks on any of the item",
            "match": {
              "location": "PCOD_HomePageSteps.clicks_on_any_of_the_item()"
            },
            "keyword": "And "
          },
          {
            "result": {
              "duration": 9459231682,
              "status": "passed"
            },
            "line": 44,
            "name": "correct PDP of the item displays",
            "match": {
              "location": "PCOD_HomePageSteps.correct_pdp_of_the_item_displays()"
            },
            "keyword": "Then "
          }
        ],
        "tags": [
          {
            "line": 1,
            "name": "@P1"
          },
          {
            "line": 1,
            "name": "@Android"
          },
          {
            "line": 1,
            "name": "@IOS"
          },
          {
            "line": 1,
            "name": "@Automatic_Q_A_Toss-in"
          },
          {
            "line": 1,
            "name": "@Regression"
          },
          {
            "line": 1,
            "name": "@Web"
          }
        ]
      }
    ],
    "name": "Auto Toss-in",
    "description": "This feature is used to check for the Automatic Toss-in features",
    "id": "auto-toss-in",
    "keyword": "Feature",
    "uri": "features/testfeature.feature",
    "tags": [
      {
        "line": 1,
        "name": "@Automatic_Q_A_Toss-in"
      },
      {
        "line": 1,
        "name": "@P1"
      },
      {
        "line": 1,
        "name": "@Regression"
      },
      {
        "line": 1,
        "name": "@Android"
      },
      {
        "line": 1,
        "name": "@IOS"
      },
      {
        "line": 1,
        "name": "@Web"
      }
    ]
  }
]