[
  {
    "line": 2,
    "elements": [
      {
        "comments": [
          {
            "line": 5,
            "value": "#[UserInformation]- UserName,Password"
          },
          {
            "line": 6,
            "value": "#[ItemInformation]-StudentName,ItemId"
          },
          {
            "line": 7,
            "value": "#[OrderSummary]-Bonus Points Used ,Bonus Points Earned ,Student Online Orders (Paid) ,Student Flyer Orders,Your Teacher Order"
          },
          {
            "line": 8,
            "value": "#[OrderInformation]-ItemId , Quantity and other attributes related to item."
          },
          {
            "line": 9,
            "value": "#[Free_Shipping_msg]- \u0027shipping fee is $3.50\u0027"
          },
          {
            "line": 10,
            "value": "#[Shipping_Charge_Msg]- \u0027Shipping charge as $3.50\u0027"
          },
          {
            "line": 11,
            "value": "#[Due_date_message] - \u0027Due Day message\u0027"
          },
          {
            "line": 12,
            "value": "#[Error_Msg] - \u0027Error in Cart\u0027"
          },
          {
            "line": 13,
            "value": "#[Due_date_message] - \u0027Your Next Due Date is Date\u0027"
          },
          {
            "line": 14,
            "value": "#[OS/SD/PM on submitorder] - order summary, shipping detail , payment method on submit-order-page"
          },
          {
            "line": 15,
            "value": "#[Paypal_Account_Detail] - username,id,password for new paypal account creation"
          },
          {
            "line": 16,
            "value": "#[CreditCardInformation] - nameOfCard, cardNumber, exp-date, cvv, firstName, lastName, address"
          },
          {
            "line": 17,
            "value": "#[OrderInformationMoreThan1000$] - ItemId , Quantity ,Payment Information of item more than 1000$"
          },
          {
            "line": 18,
            "value": "# [Email-idErrorMessage] - error message for no email id"
          },
          {
            "line": 19,
            "value": "#[PaymentInformation] - details for making payment"
          },
          {
            "line": 20,
            "value": "#[PaymentMethodUpdatedMessage] - message for updatde payment method in wallet of paypal"
          },
          {
            "line": 21,
            "value": "#[ShippingInformation] - shipping address details"
          },
          {
            "line": 22,
            "value": "#[DetailsOfCheck] - check details that need to be verified"
          },
          {
            "line": 23,
            "value": "#[DetailsOfPurchaseOrder] - details we need to verify for purchase order"
          },
          {
            "line": 24,
            "value": "#[PaypalDetailInformation] details that need to be verified for paypal"
          },
          {
            "line": 25,
            "value": "#[Welcome Information] - message for becoming red apple user"
          },
          {
            "line": 26,
            "value": "#[Free_shipping_Msg] - message for free shipping"
          },
          {
            "line": 27,
            "value": "#[Express_Shipping_Msg] - message for express shipping"
          },
          {
            "line": 28,
            "value": "#[SchoolInformation] - information of new school to be edited with current"
          },
          {
            "line": 29,
            "value": "#[Insufficient_BP_Balance] - message for insufficient bonus point"
          },
          {
            "line": 30,
            "value": "#[InvalidCreditCardDetails] - details of invalid credit card"
          },
          {
            "line": 31,
            "value": "#[OrderInformationMoreThan1000$] - ItemId , Quantity that makes order total 1000$"
          },
          {
            "line": 32,
            "value": "#[NewMasterCreditCardDetails] - credit card details for master card"
          }
        ],
        "line": 34,
        "name": "",
        "description": "",
        "type": "background",
        "keyword": "Background",
        "steps": [
          {
            "result": {
              "duration": 6810197736,
              "status": "passed"
            },
            "line": 35,
            "name": "Parent opens scholastic reading clubs e-commerce site",
            "match": {
              "location": "LoginSteps.Parent_opens_scholastic_reading_clubs_ecommerce_site()"
            },
            "keyword": "Given "
          }
        ]
      },
      {
        "before": [
          {
            "result": {
              "duration": 34846048197,
              "status": "passed"
            },
            "match": {
              "location": "Hooks.beforeHook(Scenario)"
            }
          }
        ],
        "line": 55,
        "name": "Parent Checkout - Shipping \u0026 Payment Screen - Payment Method - Authorizing payment:[InSprint13.4:PCOD:ParentOrder_InvalidCreditCard]",
        "description": "",
        "id": "auto-toss-in;parent-checkout---shipping-\u0026-payment-screen---payment-method---authorizing-payment:[\u003cusingdata\u003e];;2",
        "after": [
          {
            "result": {
              "duration": 1891139086,
              "status": "passed"
            },
            "match": {
              "location": "Hooks.afterHook(Scenario)"
            }
          }
        ],
        "type": "scenario",
        "keyword": "Scenario Outline",
        "steps": [
          {
            "result": {
              "duration": 56181265352,
              "status": "passed"
            },
            "line": 45,
            "name": "Parent login in with valid [username] and [password]",
            "match": {
              "location": "PCOD_LoginSteps.parent_login_in_with_valid_username_and_password()"
            },
            "keyword": "Given "
          },
          {
            "result": {
              "duration": 20440984551,
              "status": "passed"
            },
            "line": 46,
            "name": "parent add items to cart and navigate to shopping cart",
            "match": {
              "location": "PCOD_PDPPageSteps.parent_add_items_to_cart_and_navigate_to_shopping_cart()"
            },
            "keyword": "And "
          },
          {
            "result": {
              "duration": 8928132996,
              "status": "passed"
            },
            "line": 47,
            "name": "parent navigates to Shipping \u0026 Payment page",
            "match": {
              "location": "PCOD_ReviewCartPageSteps.parent_navigates_to_shipping_payment_page()"
            },
            "keyword": "And "
          },
          {
            "result": {
              "duration": 15452449365,
              "status": "passed"
            },
            "line": 48,
            "name": "parent selects “Add a new Card” from credit card dropdown",
            "match": {
              "location": "PCOD_ShippingAndPaymentPageSteps.parent_selects_add_a_new_card_from_credit_card_dropdown()"
            },
            "keyword": "When "
          },
          {
            "result": {
              "duration": 22539330959,
              "status": "passed"
            },
            "line": 49,
            "name": "enters valid data in all credit card fields and enters invalid credit card number",
            "match": {
              "location": "PCOD_ShippingAndPaymentPageSteps.enters_valid_data_in_all_credit_card_fields_and_enters_invalid_credit_card_number()"
            },
            "keyword": "And "
          },
          {
            "result": {
              "duration": 12645871385,
              "status": "passed"
            },
            "line": 50,
            "name": "clicks on Continue Checkout",
            "match": {
              "location": "PCOD_ShippingAndPaymentPageSteps.clicks_on_continue_checkout()"
            },
            "keyword": "And "
          },
          {
            "result": {
              "duration": 381939478,
              "status": "passed"
            },
            "line": 51,
            "name": "error message “Invalid Credit Card Number, Please Enter Correct Card Number” displays on Shipping \u0026 Payment page",
            "match": {
              "location": "PCOD_ShippingAndPaymentPageSteps.error_message_invalid_credit_card_number_please_enter_correct_card_number_displays_on_shipping_payment_page()"
            },
            "keyword": "Then "
          }
        ],
        "tags": [
          {
            "line": 1,
            "name": "@P1"
          },
          {
            "line": 1,
            "name": "@Android"
          },
          {
            "line": 1,
            "name": "@IOS"
          },
          {
            "line": 1,
            "name": "@Automatic_Q_A_Toss-in"
          },
          {
            "line": 1,
            "name": "@Regression"
          },
          {
            "line": 41,
            "name": "@Priority1"
          },
          {
            "line": 39,
            "name": "@DWCAPCOD-1163"
          },
          {
            "line": 1,
            "name": "@Web"
          },
          {
            "line": 40,
            "name": "@ShippingAndPayment"
          },
          {
            "line": 42,
            "name": "@Sprint-13.4"
          }
        ]
      }
    ],
    "name": "Auto Toss-in",
    "description": "This feature is used to check for the Automatic Toss-in features",
    "id": "auto-toss-in",
    "keyword": "Feature",
    "uri": "features/testfeature.feature",
    "tags": [
      {
        "line": 1,
        "name": "@Automatic_Q_A_Toss-in"
      },
      {
        "line": 1,
        "name": "@P1"
      },
      {
        "line": 1,
        "name": "@Regression"
      },
      {
        "line": 1,
        "name": "@Android"
      },
      {
        "line": 1,
        "name": "@IOS"
      },
      {
        "line": 1,
        "name": "@Web"
      }
    ]
  }
]